First Name,Last Name,Date of Birth,Mobile Phone,Email,Roles,Gender,Unique ID,Primary School,Primary Grade,Delegate Mobile Phone #
With,Plus,09/12/1996,+919983413914,,STUDENT,MALE,108md,101,102,
Without,Plus,09/12/1996,919024429799,,STUDENT,MALE,108ma,101,102,919252279078
Child,singleGuard,10/20/2010,,,STUDENT,MALE,108ss,101,102,+919252279078
Child,multipleGuard,10/20/2010,,,STUDENT,MALE,108ssNS,101,102,"919252279078, 919571706695"
Child,with double quote,10/20/2010,,,STUDENT,MALE,108ssNS11,101,102,"""919252279078,919571706695"""
Child,with double quote with plus,10/20/2010,,,STUDENT,MALE,108ssNS1100,101,102,"""919252279078,+919571706695"""